<?xml version="1.0" encoding="utf-8"?>
<!-- Generator: Adobe Illustrator 18.1.1, SVG Export Plug-In . SVG Version: 6.00 Build 0)  -->
<svg version="1.1" id="Layer_1" xmlns="http://www.w3.org/2000/svg" xmlns:xlink="http://www.w3.org/1999/xlink" x="0px" y="0px"
	 viewBox="0 0 25 25" enable-background="new 0 0 25 25" xml:space="preserve">
<path fill="#757575" d="M23.8,23.8l-7.3-7.6c0,0-0.1,0-0.1-0.1c1.4-1.7,2.3-3.9,2.3-6.4c0-5.4-4.2-9.7-9.3-9.7S0,4.4,0,9.7
	s4.2,9.7,9.3,9.7c2.3,0,4.5-0.9,6.1-2.4c0,0,0,0.1,0.1,0.1l7.3,7.6c0.3,0.3,0.7,0.3,0.9,0C24.1,24.5,24.1,24.1,23.8,23.8z M9.3,18.1
	c-4.4,0-8-3.7-8-8.3s3.6-8.3,8-8.3s8,3.7,8,8.3S13.8,18.1,9.3,18.1z"/>
</svg>
