<?xml version="1.0" encoding="utf-8"?>
<!-- Generator: Adobe Illustrator 18.1.1, SVG Export Plug-In . SVG Version: 6.00 Build 0)  -->
<svg version="1.1" id="Layer_1" xmlns="http://www.w3.org/2000/svg" xmlns:xlink="http://www.w3.org/1999/xlink" x="0px" y="0px"
	 viewBox="0 0 25 25" enable-background="new 0 0 25 25" xml:space="preserve">
<g>
	<path fill="#757575" d="M23,4H2C0.9,4,0,4.8,0,5.9v12C0,19,0.9,20,2,20h21c1.1,0,2-0.9,2-2.1v-12C25,4.8,24.1,4,23,4z M24,17.9
		c0,0.6-0.5,1.1-1,1.1H2c-0.5,0-1-0.5-1-1.1v-12C1,5.3,1.5,5,2,5h21c0.5,0,1,0.3,1,0.9V17.9z"/>
	<path fill="#757575" d="M21.5,7h-4C17.2,7,17,7.2,17,7.5v4c0,0.3,0.2,0.5,0.5,0.5h4c0.3,0,0.5-0.2,0.5-0.5v-4C22,7.2,21.8,7,21.5,7
		z M21,11h-3V8h3V11z"/>
	<path fill="#757575" d="M4,9h2c0.3,0,0.5-0.2,0.5-0.5S6.3,8,6,8H4C3.7,8,3.5,8.2,3.5,8.5S3.7,9,4,9z"/>
	<path fill="#757575" d="M4,15h9c0.3,0,0.5-0.2,0.5-0.5S13.3,14,13,14H4c-0.3,0-0.5,0.2-0.5,0.5S3.7,15,4,15z"/>
	<path fill="#757575" d="M16,16H4c-0.3,0-0.5,0.2-0.5,0.5S3.7,17,4,17h12c0.3,0,0.5-0.2,0.5-0.5S16.3,16,16,16z"/>
</g>
</svg>
